<?xml version="1.0" standalone="no"?>
<!DOCTYPE svg PUBLIC "-//W3C//DTD SVG 20010904//EN"
 "http://www.w3.org/TR/2001/REC-SVG-20010904/DTD/svg10.dtd">
<svg version="1.0" xmlns="http://www.w3.org/2000/svg"
 width="1257.000000pt" height="1257.000000pt" viewBox="0 0 1257.000000 1257.000000"
 preserveAspectRatio="xMidYMid meet">
<metadata>
Created by potrace 1.11, written by Peter Selinger 2001-2013
</metadata>
<g transform="translate(0.000000,1257.000000) scale(0.100000,-0.100000)"
fill="#000000" stroke="none">
<path d="M2235 12553 c-154 -27 -398 -128 -481 -198 -7 -5 -27 -21 -46 -35
-62 -46 -204 -196 -250 -266 -116 -176 -190 -385 -203 -574 -2 -19 -3 -182 -4
-362 l-1 -327 -71 -48 c-78 -51 -202 -168 -266 -248 -62 -79 -119 -175 -158
-270 -7 -16 -18 -41 -24 -55 -8 -21 -24 -75 -37 -125 -1 -5 -9 -53 -18 -105
-14 -86 -16 -519 -13 -4505 l2 -4410 23 -99 c82 -348 313 -642 627 -799 76
-38 169 -74 225 -87 19 -5 44 -10 55 -13 11 -3 43 -9 70 -13 57 -10 7232 -12
7285 -2 19 3 53 9 75 13 116 20 369 130 440 191 15 13 32 24 36 24 17 0 200
190 248 257 49 70 115 192 141 263 7 19 16 38 19 42 3 4 213 8 466 9 334 1
482 5 540 15 249 43 476 161 650 338 86 88 104 109 149 180 93 145 134 249
182 466 12 50 15 8841 4 8915 -10 63 -11 68 -30 150 -14 64 -72 209 -108 270
-55 95 -64 109 -100 154 -44 56 -177 188 -221 219 -80 58 -125 85 -198 121
-79 39 -210 84 -273 95 -19 3 -55 9 -80 14 -25 4 -121 9 -215 11 -93 1 -173 5
-176 9 -3 4 -12 23 -19 42 -18 51 -80 172 -96 191 -8 8 -14 20 -14 26 0 5 -8
19 -17 31 -10 11 -29 36 -43 54 -42 56 -172 182 -232 226 -139 102 -303 173
-508 219 -19 4 -1659 8 -3645 9 -3107 2 -3621 0 -3690 -13z"/>
</g>
</svg>
