<?xml version="1.0" encoding="utf-8"?>
<!-- Generator: Adobe Illustrator 23.0.6, SVG Export Plug-In . SVG Version: 6.00 Build 0)  -->
<svg version="1.1" id="Layer_1" xmlns="http://www.w3.org/2000/svg" xmlns:xlink="http://www.w3.org/1999/xlink" x="0px" y="0px"
	 viewBox="0 0 922.7 636.6" style="enable-background:new 0 0 922.7 636.6;" xml:space="preserve">
<style type="text/css">
	.st0{fill:url(#SVGID_1_);}
	.st1{fill:#F5F5F5;}
	.st2{fill:url(#SVGID_2_);}
	.st3{fill:#FFFFFF;}
	.st4{clip-path:url(#SVGID_4_);}
	.st5{fill:#4580E1;}
	.st6{fill:#FFC40D;}
	.st7{fill:url(#SVGID_5_);}
	.st8{fill:url(#SVGID_6_);}
	.st9{clip-path:url(#SVGID_8_);}
	.st10{fill:url(#SVGID_9_);}
	.st11{fill:url(#c6fe725a-3b03-4a96-90af-cfbd2676500a_1_);}
	.st12{clip-path:url(#SVGID_11_);}
</style>
<title>images</title>
<linearGradient id="SVGID_1_" gradientUnits="userSpaceOnUse" x1="704.04" y1="6.86" x2="704.04" y2="496.31" gradientTransform="matrix(1 0 0 -1 -144.57 496.31)">
	<stop  offset="1.000000e-02" style="stop-color:#808080;stop-opacity:0.25"/>
	<stop  offset="0.54" style="stop-color:#808080;stop-opacity:0.12"/>
	<stop  offset="1" style="stop-color:#808080;stop-opacity:0.1"/>
</linearGradient>
<path class="st0" d="M910.4,474c0,8.5-6.8,15.4-15.3,15.4c0,0,0,0,0,0H223.8c-8.5,0-15.3-6.9-15.3-15.4c0,0,0,0,0,0V15.4
	c0-8.5,6.8-15.4,15.3-15.4c0,0,0,0,0,0h671.4c8.5,0,15.3,6.9,15.3,15.4c0,0,0,0,0,0"/>
<path class="st1" d="M902.5,466.5c0,8.2-6.7,14.9-14.9,14.9l0,0H231.8c-8.2,0-14.9-6.7-14.9-14.9V23.2c0-8.2,6.7-14.9,14.9-14.9
	h655.8c8.2,0,14.9,6.7,14.9,14.9c0,0,0,0,0,0"/>
<linearGradient id="SVGID_2_" gradientUnits="userSpaceOnUse" x1="560.05" y1="172.54" x2="560.05" y2="605.52" gradientTransform="matrix(1 0 0 -1 0 635)">
	<stop  offset="1.000000e-02" style="stop-color:#808080;stop-opacity:0.25"/>
	<stop  offset="0.54" style="stop-color:#808080;stop-opacity:0.12"/>
	<stop  offset="1" style="stop-color:#808080;stop-opacity:0.1"/>
</linearGradient>
<path class="st2" d="M251.9,29.5h616.2c4.9,0,8.8,4,8.8,8.9v415.3c0,4.9-4,8.9-8.8,8.9H251.9c-4.9,0-8.9-4-8.9-8.9V38.3
	C243.1,33.4,247.1,29.5,251.9,29.5z"/>
<path class="st3" d="M259.7,39.4h600c4.9,0,8.8,4,8.8,8.9v393.1c0,4.9-4,8.9-8.8,8.9h-600c-4.9,0-8.8-4-8.8-8.9V48.3
	C250.9,43.4,254.9,39.4,259.7,39.4z"/>
<g>
	<defs>
		<path id="SVGID_3_" d="M259.7,39.4h600c4.9,0,8.8,4,8.8,8.9v393.1c0,4.9-4,8.8-8.8,8.8h-600c-4.9,0-8.9-4-8.9-8.8V48.3
			C250.9,43.4,254.9,39.4,259.7,39.4z"/>
	</defs>
	<clipPath id="SVGID_4_">
		<use xlink:href="#SVGID_3_"  style="overflow:visible;"/>
	</clipPath>
	<g class="st4">
		<path class="st5" d="M216.5,446.5L389,248.9c12.5-14.3,34.2-15.8,48.4-3.3c0,0,0.1,0.1,0.1,0.1l48.3,42.6
			c12.7,11.2,31.8,11.5,44.8,0.5l147.6-124c14.1-11.9,35.1-10.5,47.5,3.2l181.1,199.3c5,5.5,8.1,12.6,8.8,20l7,78.6
			c1.7,18.9-12.2,35.6-31.1,37.3c-1,0.1-2.1,0.1-3.1,0.1h-646c-18.6,0-33.7-14.7-34.3-33.3l0,0C207.9,461.5,210.9,453,216.5,446.5z"
			/>
	</g>
</g>
<circle class="st6" cx="325.3" cy="105.3" r="38.3"/>
<linearGradient id="SVGID_5_" gradientUnits="userSpaceOnUse" x1="600" y1="-59.72" x2="600" y2="429.72" gradientTransform="matrix(1 0 0 -1 -144.57 496.31)">
	<stop  offset="1.000000e-02" style="stop-color:#808080;stop-opacity:0.25"/>
	<stop  offset="0.54" style="stop-color:#808080;stop-opacity:0.12"/>
	<stop  offset="1" style="stop-color:#808080;stop-opacity:0.1"/>
</linearGradient>
<path class="st7" d="M806.4,540.6c0,8.5-6.8,15.4-15.3,15.4c0,0,0,0,0,0H119.7c-8.5,0-15.3-6.9-15.3-15.4c0,0,0,0,0,0V82
	c0-8.5,6.8-15.4,15.3-15.4c0,0,0,0,0,0h671.4c8.5,0,15.3,6.9,15.3,15.4c0,0,0,0,0,0"/>
<path class="st1" d="M798.5,533.1c0,8.2-6.7,14.9-14.9,14.9H127.8c-8.2,0-14.9-6.7-14.9-14.9V89.8c0-8.2,6.7-14.9,14.9-14.9l0,0
	h655.8c8.2,0,14.9,6.7,14.9,14.9"/>
<linearGradient id="SVGID_6_" gradientUnits="userSpaceOnUse" x1="456.01" y1="105.95" x2="456.01" y2="538.93" gradientTransform="matrix(1 0 0 -1 0 635)">
	<stop  offset="1.000000e-02" style="stop-color:#808080;stop-opacity:0.25"/>
	<stop  offset="0.54" style="stop-color:#808080;stop-opacity:0.12"/>
	<stop  offset="1" style="stop-color:#808080;stop-opacity:0.1"/>
</linearGradient>
<path class="st8" d="M147.9,96.1h616.2c4.9,0,8.8,4,8.8,8.8v415.3c0,4.9-4,8.8-8.8,8.8H147.9c-4.9,0-8.9-4-8.9-8.8V104.9
	C139.1,100,143,96.1,147.9,96.1z"/>
<path class="st3" d="M155.7,106h600c4.9,0,8.8,4,8.8,8.8V508c0,4.9-4,8.9-8.8,8.9h-600c-4.9,0-8.9-4-8.9-8.9V114.9
	C146.9,110,150.8,106,155.7,106z"/>
<g>
	<defs>
		<path id="SVGID_7_" d="M155.7,106h600c4.9,0,8.8,4,8.8,8.9V508c0,4.9-4,8.8-8.8,8.8h-600c-4.9,0-8.9-4-8.9-8.8V114.9
			C146.9,110,150.8,106,155.7,106z"/>
	</defs>
	<clipPath id="SVGID_8_">
		<use xlink:href="#SVGID_7_"  style="overflow:visible;"/>
	</clipPath>
	<g class="st9">
		<path class="st5" d="M112.5,513.1l172.4-197.6c12.5-14.3,34.2-15.8,48.4-3.3c0,0,0.1,0.1,0.1,0.1l48.3,42.6
			c12.7,11.2,31.8,11.5,44.8,0.5l147.6-124.1c14.1-11.9,35.1-10.5,47.5,3.2l181.1,199.3c5,5.5,8.1,12.6,8.8,20l7,78.6
			c1.7,18.9-12.3,35.6-31.2,37.2c-1,0.1-2,0.1-3,0.1h-646c-18.6,0-33.7-14.7-34.3-33.3l0,0C103.8,528,106.8,519.6,112.5,513.1z"/>
	</g>
</g>
<ellipse transform="matrix(0.1602 -0.9871 0.9871 0.1602 16.1125 362.738)" class="st6" cx="221.2" cy="171.9" rx="38.3" ry="38.2"/>
<linearGradient id="SVGID_9_" gradientUnits="userSpaceOnUse" x1="495.96" y1="-126.31" x2="495.96" y2="363.14" gradientTransform="matrix(1 0 0 -1 -144.57 496.31)">
	<stop  offset="1.000000e-02" style="stop-color:#808080;stop-opacity:0.25"/>
	<stop  offset="0.54" style="stop-color:#808080;stop-opacity:0.12"/>
	<stop  offset="1" style="stop-color:#808080;stop-opacity:0.1"/>
</linearGradient>
<path class="st10" d="M702.3,607.2c0,8.5-6.8,15.4-15.3,15.4c0,0,0,0,0,0H15.7c-8.5,0-15.3-6.9-15.3-15.4c0,0,0,0,0,0V148.6
	c0-8.5,6.8-15.4,15.3-15.4c0,0,0,0,0,0h671.4c8.5,0,15.3,6.9,15.3,15.4c0,0,0,0,0,0"/>
<path class="st3" d="M694.4,599.7c0,8.2-6.7,14.9-14.9,14.9H23.7c-8.2,0-14.9-6.7-14.9-14.9V156.3c0-8.2,6.7-14.9,14.9-14.9
	c0,0,0,0,0,0h655.8c8.2,0,14.9,6.7,14.9,14.9"/>
<linearGradient id="c6fe725a-3b03-4a96-90af-cfbd2676500a_1_" gradientUnits="userSpaceOnUse" x1="351.97" y1="39.37" x2="351.97" y2="472.35" gradientTransform="matrix(1 0 0 -1 0 635)">
	<stop  offset="1.000000e-02" style="stop-color:#808080;stop-opacity:0.25"/>
	<stop  offset="0.54" style="stop-color:#808080;stop-opacity:0.12"/>
	<stop  offset="1" style="stop-color:#808080;stop-opacity:0.1"/>
</linearGradient>
<path id="c6fe725a-3b03-4a96-90af-cfbd2676500a" class="st11" d="M43.9,162.6h616.2c4.9,0,8.8,4,8.8,8.9v415.3c0,4.9-4,8.8-8.8,8.8
	H43.9c-4.9,0-8.9-4-8.9-8.8V171.5C35,166.6,39,162.6,43.9,162.6z"/>
<path class="st3" d="M51.7,172.6h600c4.9,0,8.8,4,8.8,8.9v393.1c0,4.9-4,8.8-8.8,8.8h-600c-4.9,0-8.9-4-8.9-8.8V181.5
	C42.8,176.6,46.8,172.6,51.7,172.6z"/>
<g>
	<defs>
		<path id="SVGID_10_" d="M51.7,172.6h600c4.9,0,8.8,4,8.8,8.9v393.1c0,4.9-4,8.8-8.8,8.8h-600c-4.9,0-8.9-4-8.9-8.8V181.5
			C42.8,176.6,46.8,172.6,51.7,172.6z"/>
	</defs>
	<clipPath id="SVGID_11_">
		<use xlink:href="#SVGID_10_"  style="overflow:visible;"/>
	</clipPath>
	<g class="st12">
		<path class="st5" d="M8.4,579.7l172.5-197.6c12.5-14.3,34.2-15.7,48.4-3.2c0,0,0.1,0,0.1,0.1l48.3,42.6
			c12.7,11.2,31.8,11.5,44.8,0.5l147.6-124c14.1-11.9,35.1-10.5,47.5,3.2l181.1,199.3c5,5.5,8.1,12.6,8.8,20l7,78.6
			c1.7,18.9-12.3,35.6-31.2,37.2c-1,0.1-2,0.1-3,0.1h-646c-18.5,0-33.7-14.7-34.3-33.2l0,0C-0.3,594.6,2.7,586.2,8.4,579.7z"/>
	</g>
</g>
<circle class="st6" cx="117.2" cy="238.5" r="38.2"/>
</svg>
